<svg width="466" height="466" viewBox="0 0 466 466" fill="none" xmlns="http://www.w3.org/2000/svg">
<rect width="465.422" height="465.422" rx="232.711" transform="matrix(-1 0 0 1 466 0.311035)" fill="white" fill-opacity="0.6"/>
<rect width="465.422" height="465.422" rx="232.711" transform="matrix(-1 0 0 1 466 0.311035)" fill="#F4FAFB"/>
<mask id="mask0_602_15180" style="mask-type:alpha" maskUnits="userSpaceOnUse" x="0" y="0" width="466" height="466">
<rect width="465.422" height="465.422" rx="232.711" transform="matrix(-1 0 0 1 466 0.311035)" fill="white"/>
</mask>
<g mask="url(#mask0_602_15180)">
<path d="M690.559 221.838C693.087 219.816 695.508 217.651 697.816 215.343C762.407 150.752 714.46 -1.91829 590.723 -125.655C466.985 -249.393 314.315 -297.34 249.724 -232.749C247.344 -230.369 245.116 -227.868 243.039 -225.254M690.559 221.838C688.482 224.452 686.254 226.953 683.874 229.334C681.551 231.657 679.114 233.834 676.569 235.867M690.559 221.838C660.714 245.717 615.933 249.795 565.005 236.833M690.559 221.838C744.827 153.528 695.956 7.5118 576.78 -111.665C457.465 -230.98 311.248 -279.825 243.039 -225.254M676.569 235.867C674.482 238.498 672.242 241.014 669.847 243.409C667.524 245.732 665.087 247.909 662.542 249.942M676.569 235.867C608.339 290.378 462.163 241.527 342.876 122.24C223.726 3.0902 174.85 -142.887 229.06 -211.217M676.569 235.867C730.778 167.537 681.903 21.5602 562.753 -97.5894C443.466 -216.877 297.289 -265.727 229.06 -211.217M662.542 249.942C660.455 252.573 658.215 255.089 655.82 257.484C653.371 259.932 650.796 262.219 648.101 264.346M662.542 249.942C594.312 304.453 448.136 255.602 328.849 136.315C209.699 17.1652 160.823 -128.812 215.033 -197.142M662.542 249.942C716.751 181.612 667.876 35.6352 548.726 -83.5144C429.439 -202.802 283.263 -251.652 215.033 -197.142M648.101 264.346C646.108 266.828 643.978 269.206 641.709 271.475C639.4 273.783 636.979 275.948 634.451 277.97M648.101 264.346C579.696 318.331 433.868 269.436 314.822 150.39C195.432 30.9999 146.6 -115.326 201.335 -183.48M648.101 264.346C702.837 196.193 654.005 49.8667 534.615 -69.5235C415.568 -188.57 269.741 -237.464 201.335 -183.48M634.451 277.97C632.375 280.584 630.147 283.085 627.766 285.465C625.443 287.788 623.006 289.966 620.461 291.999M634.451 277.97C688.72 209.66 639.849 63.6437 520.672 -55.5328C401.357 -174.848 255.141 -223.693 186.932 -169.122M634.451 277.97C566.242 332.542 420.026 283.696 300.711 164.381C181.534 45.2042 132.663 -100.812 186.932 -169.122M620.461 291.999C618.374 294.63 616.134 297.146 613.739 299.54C611.291 301.989 608.716 304.276 606.021 306.403M620.461 291.999C552.231 346.509 406.055 297.659 286.768 178.372C167.618 59.222 118.743 -86.7549 172.952 -155.085M620.461 291.999C674.671 223.669 625.795 77.6922 506.645 -41.4576C387.358 -160.745 241.182 -209.596 172.952 -155.085M606.021 306.403C604.028 308.884 601.897 311.262 599.628 313.531C597.319 315.84 594.898 318.005 592.37 320.028M606.021 306.403C537.616 360.388 391.788 311.494 272.741 192.447C153.351 73.0566 104.519 -73.2691 159.255 -141.423M606.021 306.403C660.756 238.249 611.924 91.9231 492.534 -27.4668C373.487 -146.513 227.66 -195.407 159.255 -141.423M592.37 320.028C590.293 322.642 588.066 325.142 585.685 327.522C583.362 329.845 580.925 332.023 578.38 334.056M592.37 320.028C646.639 251.717 597.768 105.701 478.591 -13.476C359.277 -132.791 213.06 -181.636 144.851 -127.066M592.37 320.028C524.16 374.598 377.944 325.752 258.63 206.438C139.453 87.2609 90.5823 -58.7555 144.851 -127.066M578.38 334.056C576.293 336.687 574.053 339.203 571.658 341.597C569.335 343.92 566.899 346.097 564.353 348.131M578.38 334.056C632.59 265.726 583.714 119.749 464.564 0.599095C345.277 -118.688 199.101 -167.539 130.871 -113.028M578.38 334.056C510.151 388.566 363.974 339.716 244.687 220.428C125.537 101.279 76.6617 -44.6982 130.871 -113.028M564.353 348.131C562.266 350.762 560.026 353.278 557.631 355.672C555.183 358.121 552.608 360.408 549.912 362.535M564.353 348.131C618.563 279.801 569.687 133.824 450.538 14.6743C331.25 -104.613 185.074 -153.464 116.844 -98.9532M564.353 348.131C496.124 402.642 349.947 353.791 230.66 234.503C111.511 115.354 62.6349 -30.6228 116.844 -98.9532M549.912 362.535C547.919 365.016 545.789 367.394 543.52 369.663C478.929 434.254 326.259 386.307 202.522 262.569C78.7848 138.832 30.8373 -13.8379 95.4282 -78.4288C97.8767 -80.8773 100.452 -83.1642 103.147 -85.2913M549.912 362.535C573.885 332.686 577.992 287.842 565.005 236.833M549.912 362.535C481.507 416.519 335.68 367.625 216.633 248.579C97.2428 129.188 48.4108 -17.1377 103.147 -85.2913M103.147 -85.2913C105.14 -87.7727 107.27 -90.1504 109.539 -92.4195C111.862 -94.7424 114.299 -96.9197 116.844 -98.9532M103.147 -85.2913C132.992 -108.844 177.574 -112.814 228.239 -99.919M116.844 -98.9532C118.931 -101.584 121.172 -104.1 123.566 -106.495C125.889 -108.818 128.326 -110.995 130.871 -113.028M130.871 -113.028C132.959 -115.659 135.199 -118.175 137.593 -120.57C139.902 -122.878 142.323 -125.043 144.851 -127.066M144.851 -127.066C146.928 -129.68 149.155 -132.18 151.536 -134.561C153.984 -137.009 156.559 -139.296 159.255 -141.423M159.255 -141.423C161.248 -143.904 163.378 -146.282 165.647 -148.551C167.97 -150.874 170.407 -153.052 172.952 -155.085M172.952 -155.085C175.039 -157.716 177.279 -160.232 179.674 -162.627C181.983 -164.935 184.404 -167.1 186.932 -169.122M186.932 -169.122C189.008 -171.737 191.236 -174.237 193.617 -176.617C196.065 -179.066 198.64 -181.353 201.335 -183.48M201.335 -183.48C203.328 -185.961 205.459 -188.339 207.728 -190.608C210.051 -192.931 212.488 -195.109 215.033 -197.142M215.033 -197.142C217.12 -199.773 219.36 -202.289 221.755 -204.683C224.078 -207.006 226.515 -209.183 229.06 -211.217M229.06 -211.217C231.147 -213.848 233.387 -216.364 235.782 -218.758C238.09 -221.067 240.511 -223.231 243.039 -225.254M243.039 -225.254C219.326 -195.405 215.306 -150.719 228.239 -99.919M565.005 236.833C548.34 171.375 503.527 95.7659 436.426 28.665C369.319 -38.4425 293.701 -83.2579 228.239 -99.919M565.005 236.833C499.543 220.172 423.926 175.356 356.818 108.249C289.717 41.148 244.904 -34.4614 228.239 -99.919" stroke="#C6E7EC" stroke-width="2.64444" stroke-linecap="round" stroke-linejoin="round"/>
<path d="M690.559 221.838C693.087 219.816 695.508 217.651 697.816 215.343C762.407 150.752 714.46 -1.91829 590.723 -125.655C466.985 -249.393 314.315 -297.34 249.724 -232.749C247.344 -230.369 245.116 -227.868 243.039 -225.254M690.559 221.838C688.482 224.452 686.254 226.953 683.874 229.334C681.551 231.657 679.114 233.834 676.569 235.867M690.559 221.838C660.714 245.717 615.933 249.795 565.005 236.833M690.559 221.838C744.827 153.528 695.956 7.5118 576.78 -111.665C457.465 -230.98 311.248 -279.825 243.039 -225.254M676.569 235.867C674.482 238.498 672.242 241.014 669.847 243.409C667.524 245.732 665.087 247.909 662.542 249.942M676.569 235.867C608.339 290.378 462.163 241.527 342.876 122.24C223.726 3.0902 174.85 -142.887 229.06 -211.217M676.569 235.867C730.778 167.537 681.903 21.5602 562.753 -97.5894C443.466 -216.877 297.289 -265.727 229.06 -211.217M662.542 249.942C660.455 252.573 658.215 255.089 655.82 257.484C653.371 259.932 650.796 262.219 648.101 264.346M662.542 249.942C594.312 304.453 448.136 255.602 328.849 136.315C209.699 17.1652 160.823 -128.812 215.033 -197.142M662.542 249.942C716.751 181.612 667.876 35.6352 548.726 -83.5144C429.439 -202.802 283.263 -251.652 215.033 -197.142M648.101 264.346C646.108 266.828 643.978 269.206 641.709 271.475C639.4 273.783 636.979 275.948 634.451 277.97M648.101 264.346C579.696 318.331 433.868 269.436 314.822 150.39C195.432 30.9999 146.6 -115.326 201.335 -183.48M648.101 264.346C702.837 196.193 654.005 49.8667 534.615 -69.5235C415.568 -188.57 269.741 -237.464 201.335 -183.48M634.451 277.97C632.375 280.584 630.147 283.085 627.766 285.465C625.443 287.788 623.006 289.966 620.461 291.999M634.451 277.97C688.72 209.66 639.849 63.6437 520.672 -55.5328C401.357 -174.848 255.141 -223.693 186.932 -169.122M634.451 277.97C566.242 332.542 420.026 283.696 300.711 164.381C181.534 45.2042 132.663 -100.812 186.932 -169.122M620.461 291.999C618.374 294.63 616.134 297.146 613.739 299.54C611.291 301.989 608.716 304.276 606.021 306.403M620.461 291.999C552.231 346.509 406.055 297.659 286.768 178.372C167.618 59.222 118.743 -86.7549 172.952 -155.085M620.461 291.999C674.671 223.669 625.795 77.6922 506.645 -41.4576C387.358 -160.745 241.182 -209.596 172.952 -155.085M606.021 306.403C604.028 308.884 601.897 311.262 599.628 313.531C597.319 315.84 594.898 318.005 592.37 320.028M606.021 306.403C537.616 360.388 391.788 311.494 272.741 192.447C153.351 73.0566 104.519 -73.2691 159.255 -141.423M606.021 306.403C660.756 238.249 611.924 91.9231 492.534 -27.4668C373.487 -146.513 227.66 -195.407 159.255 -141.423M592.37 320.028C590.293 322.642 588.066 325.142 585.685 327.522C583.362 329.845 580.925 332.023 578.38 334.056M592.37 320.028C646.639 251.717 597.768 105.701 478.591 -13.476C359.277 -132.791 213.06 -181.636 144.851 -127.066M592.37 320.028C524.16 374.598 377.944 325.752 258.63 206.438C139.453 87.2609 90.5823 -58.7555 144.851 -127.066M578.38 334.056C576.293 336.687 574.053 339.203 571.658 341.597C569.335 343.92 566.899 346.097 564.353 348.131M578.38 334.056C632.59 265.726 583.714 119.749 464.564 0.599095C345.277 -118.688 199.101 -167.539 130.871 -113.028M578.38 334.056C510.151 388.566 363.974 339.716 244.687 220.428C125.537 101.279 76.6617 -44.6982 130.871 -113.028M564.353 348.131C562.266 350.762 560.026 353.278 557.631 355.672C555.183 358.121 552.608 360.408 549.912 362.535M564.353 348.131C618.563 279.801 569.687 133.824 450.538 14.6743C331.25 -104.613 185.074 -153.464 116.844 -98.9532M564.353 348.131C496.124 402.642 349.947 353.791 230.66 234.503C111.511 115.354 62.6349 -30.6228 116.844 -98.9532M549.912 362.535C547.919 365.016 545.789 367.394 543.52 369.663C478.929 434.254 326.259 386.307 202.522 262.569C78.7848 138.832 30.8373 -13.8379 95.4282 -78.4288C97.8767 -80.8773 100.452 -83.1642 103.147 -85.2913M549.912 362.535C573.885 332.686 577.992 287.842 565.005 236.833M549.912 362.535C481.507 416.519 335.68 367.625 216.633 248.579C97.2428 129.188 48.4108 -17.1377 103.147 -85.2913M103.147 -85.2913C105.14 -87.7727 107.27 -90.1504 109.539 -92.4195C111.862 -94.7424 114.299 -96.9197 116.844 -98.9532M103.147 -85.2913C132.992 -108.844 177.574 -112.814 228.239 -99.919M116.844 -98.9532C118.931 -101.584 121.172 -104.1 123.566 -106.495C125.889 -108.818 128.326 -110.995 130.871 -113.028M130.871 -113.028C132.959 -115.659 135.199 -118.175 137.593 -120.57C139.902 -122.878 142.323 -125.043 144.851 -127.066M144.851 -127.066C146.928 -129.68 149.155 -132.18 151.536 -134.561C153.984 -137.009 156.559 -139.296 159.255 -141.423M159.255 -141.423C161.248 -143.904 163.378 -146.282 165.647 -148.551C167.97 -150.874 170.407 -153.052 172.952 -155.085M172.952 -155.085C175.039 -157.716 177.279 -160.232 179.674 -162.627C181.983 -164.935 184.404 -167.1 186.932 -169.122M186.932 -169.122C189.008 -171.737 191.236 -174.237 193.617 -176.617C196.065 -179.066 198.64 -181.353 201.335 -183.48M201.335 -183.48C203.328 -185.961 205.459 -188.339 207.728 -190.608C210.051 -192.931 212.488 -195.109 215.033 -197.142M215.033 -197.142C217.12 -199.773 219.36 -202.289 221.755 -204.683C224.078 -207.006 226.515 -209.183 229.06 -211.217M229.06 -211.217C231.147 -213.848 233.387 -216.364 235.782 -218.758C238.09 -221.067 240.511 -223.231 243.039 -225.254M243.039 -225.254C219.326 -195.405 215.306 -150.719 228.239 -99.919M565.005 236.833C548.34 171.375 503.527 95.7659 436.426 28.665C369.319 -38.4425 293.701 -83.2579 228.239 -99.919M565.005 236.833C499.543 220.172 423.926 175.356 356.818 108.249C289.717 41.148 244.904 -34.4614 228.239 -99.919" stroke="url(#paint0_linear_602_15180)" stroke-width="2.64444" stroke-linecap="round" stroke-linejoin="round"/>
</g>
<defs>
<linearGradient id="paint0_linear_602_15180" x1="397.244" y1="445.9" x2="202.199" y2="-92.2383" gradientUnits="userSpaceOnUse">
<stop stop-color="#EBF7F8"/>
<stop offset="1" stop-color="#EBF7F8" stop-opacity="0"/>
</linearGradient>
</defs>
</svg>
