<svg width="17" height="16" viewBox="0 0 17 16" fill="none" xmlns="http://www.w3.org/2000/svg">
<g id="Office, Work/office-chair-table">
<path id="Path" d="M3.48337 7.33301V14.0025" stroke="#8C8C8C" stroke-linecap="square"/>
<path id="Path_2" fill-rule="evenodd" clip-rule="evenodd" d="M7.48501 1.99756H10.1528C10.8895 1.99756 11.4867 2.59476 11.4867 3.33145V7.33311H6.15112V3.33145C6.15112 2.59476 6.74833 1.99756 7.48501 1.99756Z" stroke="#8C8C8C" stroke-linecap="round"/>
<path id="Path_3" fill-rule="evenodd" clip-rule="evenodd" d="M6.15108 9.33386H11.4866C11.855 9.33386 12.1536 9.63246 12.1536 10.0008V10.3343C12.1536 10.8868 11.7057 11.3347 11.1532 11.3347H6.48455C5.93203 11.3347 5.48413 10.8868 5.48413 10.3343V10.0008C5.48413 9.63246 5.78273 9.33386 6.15108 9.33386Z" stroke="#8C8C8C" stroke-linecap="round"/>
<path id="Path_4" d="M8.81882 11.3347V14.0025" stroke="#8C8C8C" stroke-linecap="round"/>
<path id="Path_5" d="M10.8198 14.0025H6.81812" stroke="#8C8C8C" stroke-linecap="square"/>
<path id="Path_6" d="M15.4883 7.33311H2.14941" stroke="#8C8C8C" stroke-linecap="square"/>
<path id="Path_7" d="M14.1545 14.0025V7.33301" stroke="#8C8C8C" stroke-linecap="square"/>
</g>
</svg>
