<svg width="72" height="72" viewBox="0 0 72 72" fill="none" xmlns="http://www.w3.org/2000/svg">
<g id="Geometric, Abstract/Geometric, Abstract, Shapes, Square">
<g id="Group">
<g id="Group_2">
<path id="Path" fill-rule="evenodd" clip-rule="evenodd" d="M33 63H12C10.344 63 9 61.656 9 60V39C9 37.344 10.344 36 12 36H33C34.656 36 36 37.344 36 39V60C36 61.656 34.656 63 33 63Z" stroke="#EFE26E" stroke-width="3"/>
<path id="Path_2" fill-rule="evenodd" clip-rule="evenodd" d="M46.5 49.5H25.5C23.844 49.5 22.5 48.156 22.5 46.5V25.5C22.5 23.844 23.844 22.5 25.5 22.5H46.5C48.156 22.5 49.5 23.844 49.5 25.5V46.5C49.5 48.156 48.156 49.5 46.5 49.5Z" stroke="#0A0A0B" stroke-width="3"/>
<path id="Path_3" fill-rule="evenodd" clip-rule="evenodd" d="M60 36H39C37.344 36 36 34.656 36 33V12C36 10.344 37.344 9 39 9H60C61.656 9 63 10.344 63 12V33C63 34.656 61.656 36 60 36Z" fill="#FF3D40" stroke="#FF3D40" stroke-width="3"/>
</g>
</g>
</g>
</svg>
