<svg width="16" height="16" viewBox="0 0 16 16" fill="none" xmlns="http://www.w3.org/2000/svg">
<g id="Kitchen, Cooking/kitchenware-ladle">
<rect id="Rectangle" x="10.3333" y="1.33337" width="2" height="5.33333" rx="1" stroke="#8C8C8C" stroke-linecap="round"/>
<path id="Path" d="M11.3333 6.66663V10.4444" stroke="#8C8C8C" stroke-linecap="round"/>
<path id="Path_2" fill-rule="evenodd" clip-rule="evenodd" d="M9.33341 10.4445H13.3334C13.7016 10.4445 14.0001 10.7429 14.0001 11.1111V11.3334C14.0001 12.8061 12.8062 14 11.3334 14V14C9.86066 14 8.66675 12.8061 8.66675 11.3334V11.1111C8.66675 10.7429 8.96522 10.4445 9.33341 10.4445V10.4445Z" stroke="#8C8C8C" stroke-linecap="round"/>
<path id="Path_3" d="M4.33333 6.66663V8.66663" stroke="#8C8C8C" stroke-linecap="round"/>
<rect id="Rectangle_2" x="3.33325" y="1.33337" width="2" height="5.33333" rx="1" stroke="#8C8C8C" stroke-linecap="round"/>
<path id="Path_4" d="M5.33325 3.33333H10.3333" stroke="#8C8C8C" stroke-linecap="square"/>
<path id="Path_5" d="M12.3333 3.33333H13.9999" stroke="#8C8C8C" stroke-linecap="square"/>
<path id="Path_6" d="M2 3.33333H3.33333" stroke="#8C8C8C" stroke-linecap="square"/>
<ellipse id="Oval" cx="4.33333" cy="11.3333" rx="2.33333" ry="2.66667" stroke="#8C8C8C" stroke-linecap="round"/>
</g>
</svg>
