<svg width="17" height="16" viewBox="0 0 17 16" fill="none" xmlns="http://www.w3.org/2000/svg">
<g id="Basic Shapes/Circle">
<path id="Path" d="M13.0615 3.75736C15.4046 6.10051 15.4046 9.89949 13.0615 12.2426C10.7183 14.5858 6.91934 14.5858 4.57621 12.2426C2.23306 9.89948 2.23306 6.10049 4.57621 3.75736C6.91935 1.41421 10.7183 1.41421 13.0615 3.75736" stroke="#8C8C8C" stroke-linecap="round"/>
</g>
</svg>
